Tugas Praktikum 5
…
    select

The following objects are masked from 'package:stats':

    filter, lag

The following objects are masked from 'package:base':

    intersect, setdiff, setequal, union

data <- read_excel("D:/IPB/Semester 5/MPDW/mpdw/Data praktikum/Rafif.xlsx")
data

# A tibble: 125 × 2
   Tanggal      Harga   
   <chr>        <chr>   
 1 Aug 28, 2025 9,300.00
 2 Aug 27, 2025 9,325.00
 3 Aug 26, 2025 9,375.00
 4 Aug 25, 2025 9,500.00
 5 Aug 22, 2025 9,575.00
 6 Aug 21, 2025 9,550.00
 7 Aug 20, 2025 9,650.00
 8 Aug 19, 2025 9,775.00
 9 Aug 15, 2025 9,900.00
10 Aug 14, 2025 9,725.00
# ℹ 115 more rows
…
Split Data

Splitting

length(data$Harga)

[1] 125

train_data <- data[1:80, ]
test_data  <- data[81:nrow(data), ]

train_data

# A tibble: 80 × 2
   Tanggal    Harga
   <date>     <dbl>
 1 2025-02-12 11150
 2 2025-02-13 11225
 3 2025-02-14 11525
 4 2025-02-17 11500
 5 2025-02-18 11525
 6 2025-02-19 11650
 7 2025-02-20 11550
 8 2025-02-21 11500
 9 2025-02-24 11875
10 2025-02-25 11325
# ℹ 70 more rows
…
